﻿first_name,last_name,lang,email,ip_address
Raymond,Murray,Maltese,rmurray0@craigslist.org,133.213.198.252
Justin,Castillo,Assamese,jcastillo1@addthis.com,177.169.223.247
Diana,Moore,Telugu,dmoore2@elegantthemes.com,125.140.210.247
Christine,Gibson,Māori,cgibson3@purevolume.com,103.125.18.13
Arthur,Roberts,Guaraní,aroberts4@gnu.org,181.133.251.201
Alice,Hicks,Chinese,ahicks5@typepad.com,241.170.177.162
Steve,Cunningham,Fijian,scunningham6@vkontakte.ru,218.32.104.118
Justin,Nguyen,Malay,jnguyen7@fc2.com,40.153.100.106
Arthur,Jackson,Yiddish,ajackson8@hatena.ne.jp,220.104.30.223
Amy,Bell,Guaraní,abell9@blogs.com,133.38.59.133
Alan,Holmes,Nepali,aholmesa@ustream.tv,118.129.158.124
Sharon,Weaver,Papiamento,sweaverb@technorati.com,10.207.81.254
James,Thompson,Yiddish,jthompsonc@moonfruit.com,232.216.109.146
Sara,Clark,Korean,sclarkd@behance.net,39.102.150.225
Alan,Sanders,Tsonga,asanderse@sohu.com,124.238.217.20
Christina,Griffin,Afrikaans,cgriffinf@twitter.com,91.29.118.112
Justin,Warren,English,jwarreng@symantec.com,208.125.223.138
Jason,Matthews,Telugu,jmatthewsh@chicagotribune.com,20.9.165.175
Jose,Watkins,Polish,jwatkinsi@about.me,155.77.61.139
Betty,Jenkins,Azeri,bjenkinsj@163.com,139.224.192.169
Roy,Lewis,Gujarati,rlewisk@google.ca,217.78.34.127
Billy,Harvey,Lao,bharveyl@google.pl,166.111.124.87
Mary,Butler,Tajik,mbutlerm@hhs.gov,66.61.149.173
Carolyn,Wagner,Marathi,cwagnern@infoseek.co.jp,176.13.159.173
Brenda,Mcdonald,Kannada,bmcdonaldo@fastcompany.com,9.235.225.231
Jason,Tucker,Kyrgyz,jtuckerp@comsenz.com,95.193.86.27
Joshua,Gordon,Amharic,jgordonq@cbslocal.com,52.248.44.121
Diane,Mason,Thai,dmasonr@odnoklassniki.ru,135.77.197.18
Teresa,Harvey,Hiri Motu,tharveys@flavors.me,35.228.52.226
Wayne,Carroll,Khmer,wcarrollt@twitpic.com,43.100.204.177
Karen,Marshall,Kazakh,kmarshallu@ebay.co.uk,89.172.13.147
Russell,Sanders,Filipino,rsandersv@mapy.cz,237.158.119.88
Wanda,Ramos,Bengali,wramosw@boston.com,13.86.100.27
Tina,Dean,Swahili,tdeanx@stumbleupon.com,116.34.176.147
Maria,Gray,Armenian,mgrayy@princeton.edu,75.73.62.207
Phyllis,Burns,Belarusian,pburnsz@squarespace.com,71.243.156.78
Terry,Mcdonald,Ndebele,tmcdonald10@sohu.com,214.127.133.39
Chris,Elliott,Catalan,celliott11@sogou.com,195.57.215.111
Jeffrey,Hanson,Malayalam,jhanson12@shutterfly.com,40.235.37.102
Dennis,Davis,Spanish,ddavis13@g.co,191.27.207.172
Andrew,Reyes,Hiri Motu,areyes14@google.com.br,111.50.60.56
Larry,Gomez,Filipino,lgomez15@so-net.ne.jp,13.73.229.35
Ashley,Watkins,Tok Pisin,awatkins16@freewebs.com,41.202.211.75
Nancy,Reid,Assamese,nreid17@who.int,184.51.86.156
Christina,Ray,Māori,cray18@wikia.com,80.212.95.212
Christina,Tucker,Irish Gaelic,ctucker19@howstuffworks.com,22.65.29.253
Philip,Peterson,Khmer,ppeterson1a@nsw.gov.au,182.66.216.110
Benjamin,Olson,Finnish,bolson1b@howstuffworks.com,135.198.89.43
Joyce,Harrison,Spanish,jharrison1c@eepurl.com,115.123.138.217
Robert,Howard,Gagauz,rhoward1d@yandex.ru,90.73.60.58
Bobby,Mills,Pashto,bmills1e@lycos.com,165.187.218.235
Robin,Nguyen,Ndebele,rnguyen1f@nhs.uk,84.209.21.168
Michael,Cole,Icelandic,mcole1g@lycos.com,0.125.86.40
Frances,Henderson,Hebrew,fhenderson1h@mtv.com,150.186.136.65
Daniel,Cunningham,Lithuanian,dcunningham1i@jiathis.com,180.117.106.73
Deborah,Murray,Tsonga,dmurray1j@cafepress.com,63.32.73.103
Harold,Snyder,English,hsnyder1k@irs.gov,39.239.234.175
Dennis,Palmer,Khmer,dpalmer1l@census.gov,88.83.60.178
Alan,Hudson,Estonian,ahudson1m@gravatar.com,71.3.132.143
Julie,Dean,Filipino,jdean1n@sitemeter.com,185.82.179.238
Steven,Reed,Pashto,sreed1o@newsvine.com,8.102.67.153
Joseph,Cunningham,Malay,jcunningham1p@fastcompany.com,242.26.57.51
Gregory,Robertson,Papiamento,grobertson1q@pbs.org,87.239.136.35
Melissa,Mills,Indonesian,mmills1r@cloudflare.com,44.135.6.202
Katherine,Scott,Papiamento,kscott1s@linkedin.com,88.223.6.184
Nancy,Kim,Persian,nkim1t@washingtonpost.com,217.77.64.29
Rachel,Gray,Māori,rgray1u@dell.com,51.71.155.119
Anna,Baker,Czech,abaker1v@nydailynews.com,25.239.175.27
Kenneth,Cooper,Hebrew,kcooper1w@mozilla.com,123.180.184.191
Carlos,George,Malagasy,cgeorge1x@rakuten.co.jp,245.64.134.33
Ruth,Boyd,Mongolian,rboyd1y@yale.edu,202.50.16.202
Stephen,Graham,Kashmiri,sgraham1z@ted.com,19.35.0.196
Ashley,Woods,Swahili,awoods20@51.la,167.94.4.187
Wayne,Walker,Swati,wwalker21@yahoo.co.jp,56.29.9.212
Sandra,Adams,Guaraní,sadams22@tuttocitta.it,23.74.57.170
Roy,Howell,Tswana,rhowell23@ftc.gov,156.13.111.144
Jeffrey,Berry,German,jberry24@intel.com,130.160.253.63
Irene,Crawford,Kannada,icrawford25@shareasale.com,40.34.46.104
Ralph,Gonzalez,Tajik,rgonzalez26@ocn.ne.jp,35.6.148.219
Jack,Lawrence,Swedish,jlawrence27@hc360.com,206.173.246.92
Eugene,Sanchez,Hindi,esanchez28@blinklist.com,19.104.8.113
Katherine,Hayes,Swati,khayes29@apple.com,124.255.252.247
Jose,Fisher,Kazakh,jfisher2a@virginia.edu,160.201.102.76
Mark,Hart,Fijian,mhart2b@deliciousdays.com,0.97.182.125
Diane,Olson,Malay,dolson2c@cocolog-nifty.com,174.135.19.26
Timothy,Henry,West Frisian,thenry2d@nps.gov,247.134.164.152
Ernest,Olson,Kashmiri,eolson2e@amazon.de,88.207.192.238
Jean,Clark,Lithuanian,jclark2f@vinaora.com,166.250.42.47
Linda,King,Czech,lking2g@howstuffworks.com,126.120.138.99
Mary,Turner,Dari,mturner2h@fda.gov,197.95.40.137
Diane,Diaz,Danish,ddiaz2i@purevolume.com,199.250.94.112
Larry,Harris,Bengali,lharris2j@blinklist.com,94.237.254.233
Carolyn,Harrison,Kannada,charrison2k@qq.com,170.169.250.31
Carlos,Fuller,Assamese,cfuller2l@toplist.cz,112.242.32.140
Catherine,Spencer,Belarusian,cspencer2m@mapy.cz,245.253.92.2
Scott,Lee,Greek,slee2n@imgur.com,10.89.116.119
Joshua,Cunningham,Haitian Creole,jcunningham2o@moonfruit.com,110.56.11.106
Christopher,Carpenter,Icelandic,ccarpenter2p@prnewswire.com,95.211.35.134
Mark,Lee,Pashto,mlee2q@independent.co.uk,183.145.128.5
Deborah,Jones,Hiri Motu,djones2r@digg.com,204.167.121.231
Ryan,Robertson,Somali,rrobertson2s@skyrock.com,236.80.166.98
Amy,Cook,Chinese,acook2t@salon.com,199.202.90.114
James,Phillips,Sotho,jphillips2u@canalblog.com,127.54.220.74
Kathleen,Watson,Italian,kwatson2v@angelfire.com,212.208.128.6
Maria,Moreno,Oriya,mmoreno2w@techcrunch.com,146.173.150.53
Andrew,Riley,Yiddish,ariley2x@canalblog.com,149.58.122.149
Pamela,Ruiz,Tsonga,pruiz2y@naver.com,22.69.213.64
Lawrence,Hansen,Swedish,lhansen2z@ibm.com,30.33.167.237
Deborah,Hill,Zulu,dhill30@angelfire.com,5.236.109.73
Angela,Johnston,Dari,ajohnston31@adobe.com,183.180.94.25
Deborah,Simmons,Belarusian,dsimmons32@illinois.edu,92.124.133.247
Sean,Simpson,Malay,ssimpson33@csmonitor.com,181.112.117.222
Evelyn,Black,Tswana,eblack34@twitpic.com,81.250.152.90
Johnny,Peterson,Mongolian,jpeterson35@ycombinator.com,130.168.218.59
William,Lawson,Polish,wlawson36@feedburner.com,96.67.229.72
Daniel,Gilbert,Hindi,dgilbert37@amazonaws.com,222.74.73.229
Lillian,Johnson,Croatian,ljohnson38@symantec.com,97.215.215.29
Norma,Lee,Tamil,nlee39@usda.gov,247.156.186.98
Kevin,Stephens,Polish,kstephens3a@blogtalkradio.com,212.35.147.63
Matthew,Davis,Hindi,mdavis3b@bravesites.com,167.181.203.47
Kelly,Fox,Malayalam,kfox3c@rediff.com,23.123.90.119
Pamela,Roberts,Albanian,proberts3d@lycos.com,48.216.197.146
Craig,Wheeler,Indonesian,cwheeler3e@timesonline.co.uk,44.70.202.1
Brenda,Alvarez,Azeri,balvarez3f@networkadvertising.org,214.34.33.216
Susan,Elliott,Icelandic,selliott3g@cmu.edu,161.72.166.47
Jose,King,Armenian,jking3h@reuters.com,91.157.64.37
Jean,Olson,Romanian,jolson3i@phoca.cz,130.224.65.92
Gloria,Holmes,Tswana,gholmes3j@go.com,91.213.173.250
Margaret,Murray,Tajik,mmurray3k@reverbnation.com,110.247.178.81
Scott,James,Indonesian,sjames3l@blog.com,163.85.3.114
Linda,Carroll,Indonesian,lcarroll3m@icio.us,23.238.120.99
Amy,Nichols,Papiamento,anichols3n@jugem.jp,46.113.106.55
Howard,Hansen,Armenian,hhansen3o@unblog.fr,214.199.189.161
Virginia,Harvey,Yiddish,vharvey3p@exblog.jp,172.201.226.165
Carol,Cook,Japanese,ccook3q@google.co.jp,147.74.154.218
Gerald,Parker,Guaraní,gparker3r@naver.com,210.232.191.65
Paula,Gonzales,Japanese,pgonzales3s@example.com,184.23.85.247
Ralph,Knight,Kannada,rknight3t@icq.com,105.37.174.125
Christopher,Riley,Bosnian,criley3u@mlb.com,90.63.249.134
Laura,Scott,Swahili,lscott3v@free.fr,194.18.94.187
Donna,Myers,Croatian,dmyers3w@pinterest.com,33.22.87.90
Joseph,Scott,Italian,jscott3x@discovery.com,91.231.154.231
Jerry,Davis,Romanian,jdavis3y@trellian.com,195.40.197.228
Mildred,Dunn,Bengali,mdunn3z@gmpg.org,140.203.48.80
David,Powell,Zulu,dpowell40@buzzfeed.com,175.181.110.112
Carlos,Bryant,Icelandic,cbryant41@redcross.org,245.31.234.154
Susan,Baker,Dzongkha,sbaker42@hugedomains.com,94.239.191.80
Andrea,Owens,Pashto,aowens43@squidoo.com,76.35.224.189
Norma,Gordon,Maltese,ngordon44@economist.com,144.93.184.24
Jose,Gordon,Thai,jgordon45@tinypic.com,62.134.196.255
Michelle,Bell,Thai,mbell46@shareasale.com,57.253.58.105
Cheryl,Long,Portuguese,clong47@biblegateway.com,196.34.5.120
Earl,Little,Assamese,elittle48@digg.com,143.164.178.238
Deborah,Lopez,Moldovan,dlopez49@deliciousdays.com,146.242.32.171
Stephen,Gordon,Mongolian,sgordon4a@uiuc.edu,88.189.179.241
Margaret,Elliott,Luxembourgish,melliott4b@fotki.com,198.220.22.65
Justin,Taylor,Kurdish,jtaylor4c@google.nl,139.71.188.22
Judy,Sims,Belarusian,jsims4d@taobao.com,168.166.215.60
Christine,Kennedy,Amharic,ckennedy4e@irs.gov,48.105.64.41
Steven,Ortiz,Thai,sortiz4f@ebay.com,42.31.102.246
Jeffrey,Fox,Tsonga,jfox4g@ucoz.ru,239.173.193.18
Adam,Vasquez,Thai,avasquez4h@time.com,176.134.194.235
Kathleen,Sanders,Punjabi,ksanders4i@arizona.edu,213.137.32.127
James,George,Arabic,jgeorge4j@sogou.com,51.178.169.221
Kathryn,Vasquez,Gagauz,kvasquez4k@mail.ru,228.67.196.36
Randy,Sanders,Kazakh,rsanders4l@dropbox.com,101.60.178.70
Michelle,Bishop,Latvian,mbishop4m@thetimes.co.uk,170.180.50.152
Gloria,Simmons,Finnish,gsimmons4n@gizmodo.com,54.19.195.66
Jessica,Gilbert,Tajik,jgilbert4o@storify.com,191.92.122.112
Stephanie,Baker,Aymara,sbaker4p@china.com.cn,51.65.214.202
Rebecca,Miller,Montenegrin,rmiller4q@nasa.gov,194.89.182.149
Mary,Freeman,Khmer,mfreeman4r@nyu.edu,197.254.41.199
Carolyn,Black,Kannada,cblack4s@ocn.ne.jp,186.29.202.90
Norma,Perez,Tajik,nperez4t@intel.com,169.58.229.18
Jason,Bishop,French,jbishop4u@prlog.org,132.34.16.134
Kathy,Burke,Kurdish,kburke4v@gmpg.org,187.247.95.100
Lillian,Vasquez,Māori,lvasquez4w@goodreads.com,41.93.46.76
Andrea,Day,Filipino,aday4x@gnu.org,102.150.86.49
Harold,Harrison,Burmese,hharrison4y@elpais.com,135.57.58.115
Shirley,Watkins,Hiri Motu,swatkins4z@booking.com,193.194.97.127
Kelly,Taylor,Assamese,ktaylor50@cbc.ca,218.140.116.213
Antonio,Elliott,French,aelliott51@disqus.com,221.5.131.171
Doris,Robinson,Tswana,drobinson52@adobe.com,83.231.63.123
Margaret,Clark,Macedonian,mclark53@a8.net,5.2.216.41
Harry,Thomas,Spanish,hthomas54@cpanel.net,33.2.167.228
Sarah,Stone,Aymara,sstone55@imageshack.us,197.128.171.68
Willie,Scott,Estonian,wscott56@dmoz.org,91.155.31.25
Walter,Edwards,Persian,wedwards57@goodreads.com,89.151.35.136
Joan,Bryant,Macedonian,jbryant58@twitpic.com,62.21.67.85
Robert,Gibson,Tamil,rgibson59@wp.com,254.175.60.96
Janet,Long,Māori,jlong5a@pbs.org,19.188.153.216
Theresa,Hughes,Tswana,thughes5b@qq.com,88.124.113.187
Bobby,Reid,Tamil,breid5c@digg.com,146.214.129.97
Margaret,Moreno,Irish Gaelic,mmoreno5d@com.com,115.227.124.39
Joshua,Jordan,Tswana,jjordan5e@blinklist.com,82.223.67.13
Deborah,Day,Burmese,dday5f@trellian.com,121.112.254.25
Charles,Johnson,Kurdish,cjohnson5g@biglobe.ne.jp,90.150.74.33
Rachel,Wells,Sotho,rwells5h@digg.com,109.129.120.245
Steve,Henry,Irish Gaelic,shenry5i@google.com.br,44.159.43.58
Kenneth,Nelson,New Zealand Sign Language,knelson5j@addtoany.com,43.186.33.218
Phillip,Carroll,Georgian,pcarroll5k@phpbb.com,217.93.73.35
Richard,Marshall,Oriya,rmarshall5l@zdnet.com,113.70.150.200
Christopher,Fuller,Tajik,cfuller5m@accuweather.com,250.80.254.192
Jessica,Simpson,Japanese,jsimpson5n@yale.edu,72.109.71.119
Marilyn,Romero,Greek,mromero5o@behance.net,106.232.76.56
Stephanie,Jenkins,Malagasy,sjenkins5p@army.mil,243.226.176.180
Ruth,Oliver,Norwegian,roliver5q@blogtalkradio.com,114.192.36.32
Phillip,Burton,Macedonian,pburton5r@wisc.edu,243.185.42.186
Kimberly,Little,Tok Pisin,klittle5s@hao123.com,10.66.175.184
Charles,Ramirez,Bislama,cramirez5t@vk.com,32.53.234.199
Jeffrey,Garcia,Latvian,jgarcia5u@bigcartel.com,77.109.76.216
Brenda,George,Montenegrin,bgeorge5v@stanford.edu,17.65.183.200
Chris,Moore,Northern Sotho,cmoore5w@jalbum.net,84.126.136.198
Nancy,Arnold,Korean,narnold5x@dell.com,153.187.124.154
Carl,Mason,Lithuanian,cmason5y@columbia.edu,116.67.11.157
Richard,Foster,Romanian,rfoster5z@issuu.com,159.164.159.38
Andrea,Cooper,Haitian Creole,acooper60@bluehost.com,94.70.216.224
Laura,Rogers,Oriya,lrogers61@t.co,125.87.202.87
Kevin,Dixon,Tajik,kdixon62@yahoo.co.jp,181.89.171.198
Carlos,Thompson,Hungarian,cthompson63@facebook.com,231.79.161.35
Shirley,Rodriguez,Swati,srodriguez64@un.org,52.205.106.162
Jose,Parker,Swati,jparker65@themeforest.net,178.253.142.220
Henry,Wallace,Lao,hwallace66@hud.gov,90.138.37.94
Eric,King,Hungarian,eking67@squidoo.com,7.84.22.94
Lisa,Wallace,Haitian Creole,lwallace68@weather.com,239.228.79.83
Joe,Taylor,Malagasy,jtaylor69@whitehouse.gov,244.93.127.170
Steven,Campbell,Bengali,scampbell6a@trellian.com,40.143.179.154
Ralph,Perry,Mongolian,rperry6b@webmd.com,249.206.164.166
Jeremy,Roberts,French,jroberts6c@wikia.com,71.43.65.2
Marilyn,Carpenter,Bulgarian,mcarpenter6d@weebly.com,146.120.205.23
Julia,Alvarez,West Frisian,jalvarez6e@printfriendly.com,180.154.61.6
Barbara,Thompson,Bulgarian,bthompson6f@elpais.com,87.130.221.48
Clarence,Palmer,Kazakh,cpalmer6g@geocities.com,72.220.39.191
Amy,Rice,Tsonga,arice6h@ftc.gov,229.176.40.6
Jessica,West,Khmer,jwest6i@nydailynews.com,250.156.30.134
Marilyn,Rivera,Bislama,mrivera6j@wunderground.com,245.234.169.108
Juan,Chapman,Lithuanian,jchapman6k@springer.com,219.168.221.38
Lois,Gonzales,Marathi,lgonzales6l@networksolutions.com,80.228.62.214
Arthur,Perkins,Macedonian,aperkins6m@businessweek.com,125.123.204.109
Howard,Perez,Latvian,hperez6n@mail.ru,87.245.92.132
Theresa,Burns,Tajik,tburns6o@51.la,199.186.144.94
Jean,Arnold,Thai,jarnold6p@chronoengine.com,177.79.128.5
Russell,Hayes,Korean,rhayes6q@springer.com,200.166.215.84
Anthony,Greene,Romanian,agreene6r@1und1.de,45.219.48.236
Louis,Simmons,Dari,lsimmons6s@wikipedia.org,28.186.182.7
Helen,Anderson,Dutch,handerson6t@indiegogo.com,227.223.109.48
Christopher,Ray,Hindi,cray6u@youtube.com,39.253.57.253
Maria,Martin,Ndebele,mmartin6v@nytimes.com,233.141.143.123
Rose,Peterson,Moldovan,rpeterson6w@google.pl,57.76.219.56
Benjamin,Taylor,Belarusian,btaylor6x@nifty.com,229.4.196.193
Donald,Gomez,Swahili,dgomez6y@reuters.com,13.123.68.109
Peter,Long,Italian,plong6z@psu.edu,217.101.188.91
Teresa,Woods,Papiamento,twoods70@about.me,91.151.75.247
Mildred,Hawkins,Marathi,mhawkins71@wikia.com,200.187.190.195
Carlos,Oliver,Dutch,coliver72@blogger.com,211.161.221.218
Helen,Miller,Estonian,hmiller73@feedburner.com,114.128.186.54
Donna,Pierce,Romanian,dpierce74@telegraph.co.uk,86.176.57.93
Larry,Morgan,Bosnian,lmorgan75@wikia.com,130.230.161.248
Justin,Watkins,Macedonian,jwatkins76@sbwire.com,231.170.251.249
Gerald,Shaw,Arabic,gshaw77@rambler.ru,241.112.5.31
Michael,Stevens,Kurdish,mstevens78@dion.ne.jp,7.84.143.254
Mildred,Davis,Māori,mdavis79@springer.com,138.243.208.50
Lori,Alvarez,Burmese,lalvarez7a@wix.com,77.201.16.94
Timothy,Bishop,Oriya,tbishop7b@eventbrite.com,114.153.108.146
Gary,Bell,Tamil,gbell7c@t.co,72.124.252.193
Jeffrey,Hicks,Maltese,jhicks7d@cmu.edu,64.49.179.199
Russell,Reynolds,Haitian Creole,rreynolds7e@livejournal.com,135.118.145.152
Patrick,Evans,Dari,pevans7f@domainmarket.com,103.210.245.129
Antonio,Rice,Filipino,arice7g@gizmodo.com,73.174.70.145
Jesse,Sullivan,Catalan,jsullivan7h@youku.com,171.215.97.247
Lori,Green,Tok Pisin,lgreen7i@163.com,216.87.80.127
Ernest,Marshall,New Zealand Sign Language,emarshall7j@independent.co.uk,96.123.20.103
Linda,Bowman,Arabic,lbowman7k@hexun.com,118.196.114.162
Bobby,Cruz,Tok Pisin,bcruz7l@reddit.com,82.111.118.109
Annie,Oliver,Dzongkha,aoliver7m@histats.com,6.232.252.174
Theresa,Wright,Luxembourgish,twright7n@facebook.com,54.123.65.26
Frank,Bell,Tswana,fbell7o@latimes.com,109.25.64.209
Harry,Tucker,Punjabi,htucker7p@whitehouse.gov,101.56.47.121
Marie,Reed,Dari,mreed7q@wired.com,243.104.217.91
Christine,Tucker,Northern Sotho,ctucker7r@pagesperso-orange.fr,183.222.56.109
Jesse,King,Swati,jking7s@over-blog.com,3.8.221.62
Jack,Morrison,Norwegian,jmorrison7t@pen.io,18.78.32.0
Phillip,Rice,Irish Gaelic,price7u@delicious.com,65.133.74.69
Aaron,Adams,Kashmiri,aadams7v@columbia.edu,127.159.2.14
Scott,Wilson,Swahili,swilson7w@youtu.be,92.149.235.52
Peter,Smith,Yiddish,psmith7x@dion.ne.jp,44.254.179.180
Joan,Burton,Belarusian,jburton7y@amazon.de,133.71.226.205
Kathleen,Dunn,Georgian,kdunn7z@google.es,77.165.24.166
Teresa,Bowman,Quechua,tbowman80@unc.edu,240.235.72.67
Anthony,Ryan,Kyrgyz,aryan81@usnews.com,190.198.122.185
Joe,Stewart,Japanese,jstewart82@youtube.com,211.215.214.82
Antonio,Simmons,Assamese,asimmons83@ucla.edu,240.221.131.82
Pamela,Robinson,Albanian,probinson84@netvibes.com,208.194.198.88
Nancy,Wagner,Tamil,nwagner85@wisc.edu,56.67.121.70
Willie,Riley,Somali,wriley86@edublogs.org,121.153.161.174
Daniel,Payne,Lao,dpayne87@reference.com,192.254.155.232
Pamela,Wood,Hebrew,pwood88@pinterest.com,16.77.76.158
Jeffrey,Williamson,Papiamento,jwilliamson89@eepurl.com,121.216.241.86
Harold,Wilson,Yiddish,hwilson8a@apple.com,140.241.105.98
Harold,Wright,Malay,hwright8b@example.com,168.199.172.127
Juan,Henry,Kannada,jhenry8c@deviantart.com,57.239.143.185
Samuel,Fuller,Latvian,sfuller8d@alexa.com,64.230.231.6
Janet,Castillo,Latvian,jcastillo8e@symantec.com,55.242.8.122
Howard,Coleman,Pashto,hcoleman8f@is.gd,215.213.96.221
Catherine,Owens,Georgian,cowens8g@purevolume.com,179.222.183.219
James,Walker,Papiamento,jwalker8h@cnet.com,98.18.147.238
George,Hicks,Danish,ghicks8i@xing.com,24.45.23.103
Nicole,Burton,Māori,nburton8j@amazon.de,74.124.204.47
Carlos,Jones,German,cjones8k@tamu.edu,115.115.5.77
Jonathan,Patterson,Polish,jpatterson8l@un.org,180.18.250.152
Lillian,Bennett,Burmese,lbennett8m@amazon.de,45.190.227.110
Christopher,Perry,Fijian,cperry8n@time.com,39.103.96.193
Melissa,Fernandez,Guaraní,mfernandez8o@nationalgeographic.com,34.35.248.40
Steven,Hawkins,Marathi,shawkins8p@foxnews.com,251.70.241.161
Nancy,Kelly,Amharic,nkelly8q@nytimes.com,162.215.108.188
Pamela,Wagner,Azeri,pwagner8r@tinypic.com,99.252.238.42
Sean,Johnson,Azeri,sjohnson8s@arstechnica.com,180.33.175.53
Margaret,Foster,Dari,mfoster8t@twitter.com,228.176.65.240
Clarence,Mccoy,Croatian,cmccoy8u@nhs.uk,216.15.125.193
Lisa,Butler,Polish,lbutler8v@indiegogo.com,30.78.166.232
Harold,Arnold,Icelandic,harnold8w@hibu.com,246.196.69.250
Christine,Berry,Gujarati,cberry8x@newyorker.com,66.171.12.19
Anne,Duncan,Danish,aduncan8y@theglobeandmail.com,46.193.255.170
Aaron,Howell,Spanish,ahowell8z@cloudflare.com,166.245.3.31
Justin,Larson,Dutch,jlarson90@smh.com.au,200.177.96.236
Juan,Duncan,Guaraní,jduncan91@jugem.jp,59.104.152.184
Paul,Mendoza,Tswana,pmendoza92@nasa.gov,7.16.146.65
Clarence,Morrison,Kashmiri,cmorrison93@dedecms.com,25.91.176.170
Kathy,Sanders,Moldovan,ksanders94@smh.com.au,177.118.202.141
Russell,Green,Hebrew,rgreen95@wix.com,110.59.171.142
Christopher,Fields,Indonesian,cfields96@china.com.cn,106.48.144.22
Lawrence,Kelley,Belarusian,lkelley97@de.vu,181.11.82.136
Janice,Watson,Latvian,jwatson98@creativecommons.org,137.16.217.100
Sarah,Foster,Oriya,sfoster99@google.es,172.75.177.205
Peter,Phillips,Burmese,pphillips9a@posterous.com,246.96.196.222
Dennis,Rivera,Quechua,drivera9b@springer.com,255.105.166.241
Carl,Crawford,Northern Sotho,ccrawford9c@nbcnews.com,4.175.105.112
Annie,Johnson,Somali,ajohnson9d@adobe.com,148.14.209.252
Keith,Lawrence,Mongolian,klawrence9e@dailymail.co.uk,148.94.181.80
Martin,Hansen,Malayalam,mhansen9f@biblegateway.com,5.165.205.223
Frances,Parker,Bosnian,fparker9g@dagondesign.com,84.230.54.65
Mark,Walker,Irish Gaelic,mwalker9h@github.io,43.28.67.231
Aaron,Murray,Japanese,amurray9i@si.edu,49.8.53.46
Shawn,Wagner,Māori,swagner9j@flavors.me,67.170.240.29
Fred,Wallace,Afrikaans,fwallace9k@fotki.com,155.159.170.30
Mark,White,Punjabi,mwhite9l@yandex.ru,124.145.209.61
Philip,Morales,Mongolian,pmorales9m@ebay.com,121.124.15.128
Harold,Brooks,Nepali,hbrooks9n@apache.org,85.124.44.73
Melissa,Wallace,Hebrew,mwallace9o@issuu.com,32.223.85.106
Benjamin,Robertson,Norwegian,brobertson9p@moonfruit.com,177.147.153.52
David,Kelley,Arabic,dkelley9q@gmpg.org,59.91.17.17
Kevin,Hughes,West Frisian,khughes9r@bloglovin.com,197.132.9.133
Steven,Berry,Burmese,sberry9s@ehow.com,81.244.144.95
Jeremy,Mason,Indonesian,jmason9t@nyu.edu,207.106.105.123
Kenneth,Reyes,Ndebele,kreyes9u@soundcloud.com,24.54.110.46
Pamela,Lane,Korean,plane9v@state.tx.us,154.85.86.85
Carolyn,Oliver,Tajik,coliver9w@blogger.com,94.91.19.171
Peter,Evans,Gagauz,pevans9x@dropbox.com,23.78.108.2
Bonnie,Palmer,Persian,bpalmer9y@eepurl.com,135.75.128.168
Carolyn,Jones,Hungarian,cjones9z@google.ru,233.203.30.185
Richard,Jordan,Tswana,rjordana0@artisteer.com,177.134.48.65
Rebecca,Richardson,Tetum,rrichardsona1@w3.org,175.76.189.83
Norma,Lee,Montenegrin,nleea2@meetup.com,237.115.170.232
Brian,Edwards,Filipino,bedwardsa3@arstechnica.com,236.100.17.109
Norma,Perez,Sotho,npereza4@cloudflare.com,225.61.21.51
Patricia,Gonzales,Swati,pgonzalesa5@fc2.com,134.178.0.69
Christina,Turner,Northern Sotho,cturnera6@bandcamp.com,157.1.168.165
Judith,Bell,Kurdish,jbella7@creativecommons.org,141.97.193.241
Steven,Dean,Arabic,sdeana8@canalblog.com,16.175.197.127
Christine,Porter,Ndebele,cportera9@zimbio.com,243.139.32.90
Janet,Arnold,French,jarnoldaa@wsj.com,81.151.68.237
Julie,Kennedy,Assamese,jkennedyab@state.gov,173.91.138.0
Heather,Robertson,Chinese,hrobertsonac@wikispaces.com,251.1.80.145
Paula,Hart,Punjabi,phartad@dailymail.co.uk,70.56.67.24
Willie,Flores,Latvian,wfloresae@dmoz.org,40.115.110.110
Brandon,Lawson,Italian,blawsonaf@infoseek.co.jp,234.85.83.25
Ryan,Mason,Azeri,rmasonag@chron.com,149.94.42.28
Annie,Ray,Danish,arayah@mapquest.com,240.210.111.222
Debra,Morrison,Afrikaans,dmorrisonai@live.com,228.36.43.150
Peter,Foster,Kashmiri,pfosteraj@amazon.de,0.49.216.219
Jason,Simpson,Hungarian,jsimpsonak@illinois.edu,255.159.99.166
Jane,Nguyen,Czech,jnguyenal@canalblog.com,217.27.162.236
Rebecca,Rose,Tsonga,rroseam@gnu.org,253.106.253.155
Carolyn,Holmes,Arabic,cholmesan@un.org,206.250.179.184
Justin,Hicks,Tok Pisin,jhicksao@ebay.com,119.13.44.140
John,Bell,Bengali,jbellap@list-manage.com,243.43.93.84
Janice,Evans,Bulgarian,jevansaq@chron.com,197.21.82.65
Paula,Schmidt,Arabic,pschmidtar@a8.net,216.104.3.35
Ernest,Powell,Fijian,epowellas@kickstarter.com,9.215.174.214
Amanda,Walker,Catalan,awalkerat@storify.com,28.34.91.56
Robin,Campbell,Bulgarian,rcampbellau@angelfire.com,173.23.181.167
Shawn,Richardson,Maltese,srichardsonav@amazon.de,81.187.150.203
Barbara,Ford,Malagasy,bfordaw@netvibes.com,89.61.97.70
Nicholas,Young,Aymara,nyoungax@blinklist.com,42.237.207.64
Gerald,Day,Aymara,gdayay@shutterfly.com,84.246.246.49
Emily,Jenkins,Macedonian,ejenkinsaz@youtu.be,52.66.197.225
Debra,Henry,Chinese,dhenryb0@fema.gov,223.196.65.48
Judy,Dixon,Moldovan,jdixonb1@yolasite.com,148.13.124.207
Wanda,Moreno,Hungarian,wmorenob2@usa.gov,25.216.224.254
Alan,Oliver,Burmese,aoliverb3@nature.com,20.14.110.180
Jennifer,Fernandez,Punjabi,jfernandezb4@blogtalkradio.com,17.204.189.175
Walter,Cook,Kashmiri,wcookb5@smh.com.au,43.58.245.85
Tina,Porter,Estonian,tporterb6@hud.gov,153.25.224.233
Cynthia,Edwards,Kyrgyz,cedwardsb7@irs.gov,182.13.143.194
Fred,Gilbert,Spanish,fgilbertb8@yahoo.com,189.196.67.117
Jeremy,Clark,Luxembourgish,jclarkb9@livejournal.com,71.197.148.118
Paul,Hicks,Norwegian,phicksba@goo.ne.jp,53.240.97.220
Julie,Alvarez,Lithuanian,jalvarezbb@nifty.com,117.115.217.6
Scott,Ortiz,Dhivehi,sortizbc@imageshack.us,251.65.57.12
Gregory,Arnold,Georgian,garnoldbd@yelp.com,50.199.176.234
Carolyn,Miller,Punjabi,cmillerbe@cafepress.com,160.141.97.182
Robin,Reed,Fijian,rreedbf@biblegateway.com,136.5.103.114
Nicole,Griffin,Hiri Motu,ngriffinbg@wunderground.com,108.200.47.19
Theresa,Hansen,Japanese,thansenbh@constantcontact.com,76.0.30.133
Randy,Pierce,Pashto,rpiercebi@census.gov,116.255.115.146
Diane,Ward,Polish,dwardbj@msn.com,238.254.252.107
Rachel,Porter,Oriya,rporterbk@blogspot.com,206.36.209.243
Arthur,Graham,Korean,agrahambl@usgs.gov,29.51.1.75
Gregory,Grant,Hiri Motu,ggrantbm@auda.org.au,136.197.221.225
Lisa,Chavez,Swedish,lchavezbn@nbcnews.com,137.129.144.219
Nicole,Moore,Azeri,nmoorebo@symantec.com,121.102.249.110
Ruth,George,Tetum,rgeorgebp@wsj.com,207.81.87.25
Scott,Washington,Oriya,swashingtonbq@biglobe.ne.jp,67.139.187.147
Chris,Vasquez,Danish,cvasquezbr@surveymonkey.com,181.160.132.33
Christina,Morgan,Bulgarian,cmorganbs@msu.edu,182.110.69.18
Russell,Williams,Malay,rwilliamsbt@storify.com,22.141.74.171
Alice,Bennett,Romanian,abennettbu@constantcontact.com,33.84.170.163
Todd,Shaw,Quechua,tshawbv@lycos.com,241.152.130.96
Eric,Johnson,Pashto,ejohnsonbw@wix.com,58.3.142.206
Stephen,Mendoza,Malay,smendozabx@marketwatch.com,171.168.109.164
Keith,Hunt,Croatian,khuntby@earthlink.net,174.135.32.53
Nancy,Lynch,Icelandic,nlynchbz@trellian.com,107.39.215.171
Sandra,Castillo,Norwegian,scastilloc0@ning.com,183.149.62.32
Laura,Green,Pashto,lgreenc1@engadget.com,242.143.30.139
Debra,Webb,Icelandic,dwebbc2@wordpress.com,85.90.227.80
Howard,Payne,Hebrew,hpaynec3@unblog.fr,245.153.210.208
Louise,Wright,Thai,lwrightc4@mac.com,5.110.161.77
Betty,Romero,Swahili,bromeroc5@alexa.com,198.248.139.149
Walter,Wells,Kazakh,wwellsc6@list-manage.com,209.227.56.54
Nicole,Moreno,Khmer,nmorenoc7@businesswire.com,46.83.206.2
Roger,Harper,Tok Pisin,rharperc8@yandex.ru,105.184.2.82
Jerry,Freeman,Maltese,jfreemanc9@trellian.com,148.72.85.147
Deborah,George,Indonesian,dgeorgeca@hao123.com,109.138.142.66
John,Peters,Georgian,jpeterscb@example.com,223.229.208.234
Jonathan,Larson,Kurdish,jlarsoncc@cocolog-nifty.com,251.206.220.180
Russell,Franklin,Korean,rfranklincd@jimdo.com,157.33.125.54
Edward,Rose,Tetum,erosece@newsvine.com,134.203.189.142
Marie,Holmes,Tsonga,mholmescf@wired.com,182.7.30.106
Steve,Willis,Māori,swilliscg@google.co.jp,115.45.69.120
Alan,Lawrence,Guaraní,alawrencech@princeton.edu,228.195.223.52
Larry,Hughes,French,lhughesci@biblegateway.com,191.134.223.173
Willie,Rogers,Papiamento,wrogerscj@flickr.com,138.141.117.2
Philip,Hall,Hindi,phallck@usnews.com,108.15.113.208
Phyllis,Taylor,Northern Sotho,ptaylorcl@ft.com,163.81.249.181
Michael,Gray,Northern Sotho,mgraycm@barnesandnoble.com,211.121.118.43
Ronald,Porter,Chinese,rportercn@dot.gov,28.253.23.119
Elizabeth,Bowman,Lao,ebowmanco@lulu.com,195.157.214.231
Carlos,Turner,Papiamento,cturnercp@cyberchimps.com,174.191.37.140
Antonio,Wagner,Malagasy,awagnercq@cnet.com,48.192.242.105
Brian,George,Tsonga,bgeorgecr@opensource.org,200.124.109.233
Bruce,Boyd,Malagasy,bboydcs@oaic.gov.au,50.128.224.170
Nancy,Bradley,Chinese,nbradleyct@loc.gov,133.69.190.1
Martha,Russell,Swahili,mrussellcu@guardian.co.uk,237.38.211.50
Carol,Hall,Thai,challcv@eepurl.com,139.238.199.17
Eugene,Brooks,Gagauz,ebrookscw@examiner.com,3.13.28.124
Johnny,Hart,Filipino,jhartcx@unicef.org,250.150.45.145
Annie,Brown,Guaraní,abrowncy@java.com,197.86.239.167
Judy,Green,Hungarian,jgreencz@multiply.com,78.27.131.165
Cheryl,Barnes,Malay,cbarnesd0@wunderground.com,83.204.124.97
Martha,George,Dhivehi,mgeorged1@shareasale.com,254.140.100.25
Justin,Diaz,Gagauz,jdiazd2@deviantart.com,29.62.15.110
Rebecca,Smith,Macedonian,rsmithd3@about.com,232.123.96.201
Jerry,Owens,Korean,jowensd4@washingtonpost.com,72.124.237.47
Julie,Simpson,Hindi,jsimpsond5@sakura.ne.jp,103.87.100.153
Antonio,Rivera,Irish Gaelic,ariverad6@yellowpages.com,6.13.48.121
Tammy,Fields,Estonian,tfieldsd7@patch.com,250.217.4.18
Ruth,Alexander,Chinese,ralexanderd8@independent.co.uk,104.112.108.148
Patricia,Simpson,West Frisian,psimpsond9@harvard.edu,158.117.162.70
Walter,Sanders,Finnish,wsandersda@stanford.edu,88.68.27.224
Adam,Watson,Tamil,awatsondb@dot.gov,0.44.250.171
Sandra,Smith,Kannada,ssmithdc@bluehost.com,185.121.203.162
Julie,Cox,Yiddish,jcoxdd@ameblo.jp,52.154.83.141
Matthew,Sanchez,Chinese,msanchezde@answers.com,55.131.13.125
Roger,Gibson,Hindi,rgibsondf@time.com,100.191.48.13
Michelle,Bryant,Italian,mbryantdg@cnn.com,44.251.8.145
Alan,Garza,Japanese,agarzadh@canalblog.com,167.229.20.73
Phillip,Bell,Finnish,pbelldi@indiegogo.com,30.96.117.102
Denise,Hayes,Lithuanian,dhayesdj@biblegateway.com,229.70.198.196
Arthur,Boyd,Oriya,aboyddk@hc360.com,12.15.6.174
Donald,Thomas,Korean,dthomasdl@comcast.net,74.76.197.239
Steve,Crawford,Mongolian,scrawforddm@ucsd.edu,3.232.3.113
Ann,Castillo,Sotho,acastillodn@booking.com,68.44.177.76
Betty,Grant,Quechua,bgrantdo@paginegialle.it,121.30.212.233
Ryan,Howell,Bulgarian,rhowelldp@is.gd,44.208.189.49
Brandon,Howard,Persian,bhowarddq@edublogs.org,10.112.220.29
Amy,Barnes,Dzongkha,abarnesdr@engadget.com,81.19.133.223
Gerald,Hernandez,Japanese,ghernandezds@netvibes.com,48.131.21.11
Kenneth,Day,Oriya,kdaydt@friendfeed.com,213.29.29.87
Brenda,Daniels,Bulgarian,bdanielsdu@flavors.me,84.255.122.57
Michael,Wells,Arabic,mwellsdv@adobe.com,93.49.173.176
Dennis,Russell,Kashmiri,drusselldw@google.com.br,165.207.82.95
Lisa,Watkins,Punjabi,lwatkinsdx@comsenz.com,207.228.54.24
Donald,Little,Hindi,dlittledy@bbb.org,56.147.141.43
Gerald,Lawrence,Afrikaans,glawrencedz@fda.gov,115.179.28.201
Debra,Coleman,French,dcolemane0@state.gov,10.78.222.182
Kathryn,Evans,Hungarian,kevanse1@forbes.com,245.61.0.58
Susan,Stewart,Danish,sstewarte2@ehow.com,192.251.177.192
Debra,Crawford,Bengali,dcrawforde3@independent.co.uk,255.78.101.87
Timothy,Little,Oriya,tlittlee4@blinklist.com,131.205.59.226
Paula,Fuller,Montenegrin,pfullere5@scribd.com,177.0.32.189
Jennifer,Morrison,Tamil,jmorrisone6@google.fr,50.251.74.2
Irene,Robertson,French,irobertsone7@about.com,97.36.176.224
Lillian,Rice,Moldovan,lricee8@technorati.com,29.121.104.48
Ruby,Hunter,Bulgarian,rhuntere9@cnn.com,196.114.164.55
Margaret,Lewis,New Zealand Sign Language,mlewisea@archive.org,205.39.82.221
Ernest,Anderson,Māori,eandersoneb@webs.com,239.154.200.235
Patricia,Campbell,Māori,pcampbellec@va.gov,214.141.254.125
Robin,Payne,Luxembourgish,rpayneed@youku.com,97.114.182.15
Victor,Kim,Swahili,vkimee@hatena.ne.jp,138.217.217.169
Stephen,Palmer,Macedonian,spalmeref@ebay.co.uk,191.227.106.1
Carolyn,Walker,Irish Gaelic,cwalkereg@biglobe.ne.jp,154.31.193.166
Marie,Watson,Kyrgyz,mwatsoneh@dropbox.com,244.221.4.36
Stephanie,Mendoza,Estonian,smendozaei@ucoz.ru,151.91.155.163
Joshua,Rivera,Somali,jriveraej@ocn.ne.jp,196.181.241.195
Sara,Howard,Catalan,showardek@wisc.edu,62.67.23.74
Amy,Sanchez,Haitian Creole,asanchezel@shop-pro.jp,197.187.208.188
Jennifer,Carpenter,Punjabi,jcarpenterem@istockphoto.com,149.237.9.176
John,Barnes,Bosnian,jbarnesen@disqus.com,89.126.46.177
Brian,Richardson,Pashto,brichardsoneo@hud.gov,131.132.164.44
Kelly,Howard,Greek,khowardep@infoseek.co.jp,233.101.105.13
Janet,Myers,Dhivehi,jmyerseq@cmu.edu,143.179.148.234
Debra,Alvarez,Bosnian,dalvarezer@parallels.com,222.47.159.107
Barbara,Carr,Tok Pisin,bcarres@toplist.cz,242.32.241.145
Joan,Carroll,Bulgarian,jcarrollet@wired.com,69.64.231.194
Howard,Burke,Haitian Creole,hburkeeu@fda.gov,106.171.5.87
Willie,Ross,Danish,wrossev@issuu.com,167.67.41.31
Justin,Anderson,Filipino,jandersonew@economist.com,112.200.154.224
Harry,Hunter,Guaraní,hhunterex@comcast.net,141.187.90.99
Margaret,Parker,Kashmiri,mparkerey@prlog.org,113.172.255.101
Rachel,Wilson,Oriya,rwilsonez@nih.gov,66.255.15.121
Clarence,Fisher,French,cfisherf0@nbcnews.com,190.222.201.250
Bonnie,Harris,Irish Gaelic,bharrisf1@princeton.edu,147.26.146.54
Johnny,Flores,Tamil,jfloresf2@vk.com,103.139.163.31
Jane,Hansen,Greek,jhansenf3@flavors.me,151.62.238.95
Carol,Martin,Dzongkha,cmartinf4@ycombinator.com,254.76.134.224
Jack,Larson,Thai,jlarsonf5@apache.org,229.193.158.168
Eugene,Henry,Hungarian,ehenryf6@gizmodo.com,109.88.108.80
William,Frazier,Catalan,wfrazierf7@sciencedirect.com,170.76.90.141
Ryan,Porter,Hebrew,rporterf8@storify.com,231.84.148.153
Janet,Carr,Norwegian,jcarrf9@sitemeter.com,42.212.15.64
Frances,Roberts,Albanian,frobertsfa@mozilla.org,189.0.232.234
David,Cox,Sotho,dcoxfb@marketwatch.com,174.86.133.216
Ernest,Griffin,Somali,egriffinfc@friendfeed.com,33.40.13.136
Martha,Lewis,Bislama,mlewisfd@msn.com,20.202.100.181
Stephen,Webb,Pashto,swebbfe@virginia.edu,131.219.62.31
Daniel,Wagner,Chinese,dwagnerff@goo.ne.jp,79.35.82.73
Richard,Gilbert,Northern Sotho,rgilbertfg@desdev.cn,251.236.88.99
Jesse,Wilson,Persian,jwilsonfh@earthlink.net,48.221.89.171
Frank,Ellis,Hiri Motu,fellisfi@themeforest.net,195.237.79.190
Jonathan,Rodriguez,Hebrew,jrodriguezfj@goo.ne.jp,100.165.20.131
Billy,Roberts,Aymara,brobertsfk@earthlink.net,94.103.248.5
Frances,Henry,Bislama,fhenryfl@hugedomains.com,186.186.63.45
Mark,Alexander,Punjabi,malexanderfm@fda.gov,114.125.33.98
Judy,Fisher,Spanish,jfisherfn@icio.us,4.208.224.190
Tina,Owens,Spanish,towensfo@ocn.ne.jp,88.224.79.109
Debra,Burns,Gagauz,dburnsfp@wordpress.com,164.3.166.142
Wayne,Wells,Telugu,wwellsfq@marriott.com,55.106.159.82
Craig,Gomez,Albanian,cgomezfr@cnn.com,35.136.195.12
Janet,Chavez,Korean,jchavezfs@github.io,80.9.63.30
Margaret,Alvarez,Ndebele,malvarezft@domainmarket.com,207.188.254.158
Roy,Vasquez,Mongolian,rvasquezfu@dell.com,84.234.90.9
Tina,Allen,Swedish,tallenfv@cyberchimps.com,101.138.18.78
Raymond,Cooper,Moldovan,rcooperfw@github.com,8.164.84.152
Christina,Wells,Pashto,cwellsfx@bloglines.com,212.83.27.176
Philip,Reyes,Bengali,preyesfy@soundcloud.com,163.222.12.195
Dorothy,George,Telugu,dgeorgefz@wikia.com,49.58.234.253
Martin,Carter,Kyrgyz,mcarterg0@desdev.cn,181.180.168.217
Jack,Webb,Papiamento,jwebbg1@wikimedia.org,101.206.46.223
Patricia,Nelson,Luxembourgish,pnelsong2@disqus.com,186.59.148.103
Jane,Garrett,Norwegian,jgarrettg3@bravesites.com,141.174.100.81
Mark,Peters,Malayalam,mpetersg4@furl.net,144.151.101.172
Diane,Hernandez,Kashmiri,dhernandezg5@mashable.com,231.8.133.111
Betty,Gardner,Spanish,bgardnerg6@washingtonpost.com,153.21.220.211
Todd,Hicks,Bislama,thicksg7@360.cn,242.27.127.235
Doris,Jenkins,Northern Sotho,djenkinsg8@nhs.uk,89.33.77.237
Martin,Thomas,Montenegrin,mthomasg9@dedecms.com,126.225.155.160
Billy,Stevens,Sotho,bstevensga@java.com,145.45.154.54
Billy,Gibson,Kyrgyz,bgibsongb@hugedomains.com,210.136.71.77
Michael,Howard,Ndebele,mhowardgc@uol.com.br,131.156.255.27
Frances,Ellis,Danish,fellisgd@yolasite.com,162.173.6.172
Gloria,Rodriguez,Kannada,grodriguezge@freewebs.com,207.206.72.214
Charles,Bryant,Azeri,cbryantgf@about.com,8.194.36.199
Jason,Hawkins,Dhivehi,jhawkinsgg@nhs.uk,73.248.174.252
Michael,Cook,Albanian,mcookgh@sakura.ne.jp,28.24.39.176
Ryan,Alvarez,Greek,ralvarezgi@nbcnews.com,11.208.217.171
Brian,Williamson,Kyrgyz,bwilliamsongj@sphinn.com,180.21.74.186
Samuel,Mendoza,Chinese,smendozagk@mashable.com,94.151.250.247
Antonio,Dixon,Irish Gaelic,adixongl@clickbank.net,254.156.71.178
Steven,Wagner,Māori,swagnergm@cisco.com,250.225.81.174
Cheryl,Tucker,Kazakh,ctuckergn@icio.us,215.55.36.214
Kenneth,Davis,Italian,kdavisgo@house.gov,91.229.24.146
Sara,Allen,Danish,sallengp@msn.com,102.0.88.20
Carol,James,Kannada,cjamesgq@mozilla.org,140.237.196.11
Wayne,Bell,Estonian,wbellgr@theglobeandmail.com,143.217.173.15
Denise,Stewart,Luxembourgish,dstewartgs@discovery.com,192.162.40.10
Judith,Lawrence,Afrikaans,jlawrencegt@webnode.com,238.130.7.5
Patricia,Cooper,Finnish,pcoopergu@t-online.de,103.226.26.106
Alice,Porter,Greek,aportergv@telegraph.co.uk,34.229.136.12
Douglas,Weaver,Tswana,dweavergw@archive.org,103.12.56.15
Janice,Schmidt,Papiamento,jschmidtgx@springer.com,206.239.189.105
Carolyn,Nelson,French,cnelsongy@prlog.org,110.173.255.39
Emily,Sims,Guaraní,esimsgz@techcrunch.com,11.81.17.34
Mark,Ortiz,Punjabi,mortizh0@istockphoto.com,229.196.252.185
Janet,Edwards,Czech,jedwardsh1@cyberchimps.com,43.45.10.88
Margaret,Cruz,Punjabi,mcruzh2@biblegateway.com,237.183.45.164
Louis,Schmidt,Arabic,lschmidth3@alibaba.com,105.207.85.43
Christina,Russell,Bengali,crussellh4@behance.net,100.113.242.212
Paul,Carpenter,Malayalam,pcarpenterh5@instagram.com,204.91.167.249
Mark,Gomez,Tamil,mgomezh6@businessweek.com,198.80.186.176
Paul,Reed,Norwegian,preedh7@123-reg.co.uk,95.102.54.218
Ruth,Garrett,Bosnian,rgarretth8@toplist.cz,39.56.81.167
Dennis,Owens,Swati,dowensh9@addtoany.com,44.240.84.24
Joan,Williamson,Azeri,jwilliamsonha@phpbb.com,135.128.178.123
Tammy,Garcia,Quechua,tgarciahb@php.net,169.197.173.18
Anne,Miller,Czech,amillerhc@uiuc.edu,205.193.154.40
Rebecca,Holmes,Fijian,rholmeshd@imgur.com,144.95.58.17
Steven,Phillips,English,sphillipshe@hatena.ne.jp,174.239.105.21
Ruby,Spencer,Somali,rspencerhf@apache.org,176.212.206.236
Aaron,Richards,Hindi,arichardshg@mac.com,137.154.227.67
Shirley,Nelson,Hebrew,snelsonhh@xrea.com,79.103.71.88
Lisa,Reyes,Bislama,lreyeshi@forbes.com,7.116.101.159
Judy,Bell,Dhivehi,jbellhj@devhub.com,75.118.166.182
Jane,Jackson,French,jjacksonhk@microsoft.com,20.146.251.9
Maria,Garcia,Dhivehi,mgarciahl@google.com,108.8.68.57
Carl,Hamilton,Oriya,chamiltonhm@cornell.edu,7.162.116.3
Antonio,Bennett,Guaraní,abennetthn@princeton.edu,48.177.171.157
Peter,Adams,Tajik,padamsho@arstechnica.com,118.42.111.26
Gerald,Sanders,Polish,gsandershp@unblog.fr,155.87.87.128
Gary,Russell,Kurdish,grussellhq@naver.com,185.31.99.69
Kimberly,Spencer,Sotho,kspencerhr@java.com,242.254.250.119
Carlos,Wilson,Assamese,cwilsonhs@hao123.com,146.98.142.34
Julia,Crawford,West Frisian,jcrawfordht@technorati.com,209.180.244.127
Marie,Rivera,Assamese,mriverahu@arstechnica.com,160.111.170.59
Johnny,Anderson,Hebrew,jandersonhv@google.co.jp,56.44.228.72
Carlos,Garza,Czech,cgarzahw@hc360.com,235.61.221.198
Larry,Elliott,Dhivehi,lelliotthx@nih.gov,134.92.239.32
Ann,Medina,Telugu,amedinahy@nasa.gov,85.207.62.145
Andrea,Hamilton,Irish Gaelic,ahamiltonhz@hibu.com,244.8.149.207
Justin,Sims,Arabic,jsimsi0@deliciousdays.com,30.233.35.255
Russell,Olson,Māori,rolsoni1@shinystat.com,76.77.207.11
Rose,Black,Punjabi,rblacki2@google.es,76.165.124.97
Gary,Montgomery,Lao,gmontgomeryi3@paypal.com,11.232.108.137
Keith,Kelley,Sotho,kkelleyi4@wsj.com,188.131.205.231
Willie,Fernandez,Norwegian,wfernandezi5@walmart.com,226.67.1.145
Ryan,Bowman,Indonesian,rbowmani6@omniture.com,31.244.235.27
Kimberly,Jenkins,Ndebele,kjenkinsi7@shareasale.com,189.69.15.70
Katherine,Rodriguez,Northern Sotho,krodriguezi8@purevolume.com,24.16.84.24
Ralph,Owens,French,rowensi9@amazon.co.jp,36.38.213.38
Justin,Wagner,Filipino,jwagneria@studiopress.com,90.69.219.224
Jennifer,Peterson,Chinese,jpetersonib@bloglines.com,99.46.248.237
Robert,Bell,Arabic,rbellic@craigslist.org,157.146.24.33
Alan,Burton,Dzongkha,aburtonid@bloglovin.com,207.41.206.157
Jeremy,Ramirez,Swedish,jramirezie@answers.com,62.250.2.206
Lori,Porter,Oriya,lporterif@arstechnica.com,103.222.40.54
Debra,Stewart,Gujarati,dstewartig@delicious.com,88.197.213.230
Kenneth,Reed,Zulu,kreedih@wiley.com,31.16.142.246
Evelyn,Snyder,West Frisian,esnyderii@hatena.ne.jp,96.253.82.126
Amanda,Kim,Bulgarian,akimij@geocities.com,207.209.75.34
Jack,George,Zulu,jgeorgeik@oaic.gov.au,153.87.233.232
Ryan,Gomez,Portuguese,rgomezil@over-blog.com,120.22.106.53
Mary,Gilbert,Assamese,mgilbertim@instagram.com,201.181.135.142
Sandra,Morgan,Chinese,smorganin@storify.com,98.168.163.117
Sean,Matthews,Norwegian,smatthewsio@github.com,194.167.75.221
Johnny,Bailey,Nepali,jbaileyip@g.co,166.101.179.102
Harry,Woods,Bosnian,hwoodsiq@homestead.com,121.86.69.166
Joan,Willis,Italian,jwillisir@creativecommons.org,247.131.118.37
Jason,Boyd,Danish,jboydis@redcross.org,154.179.69.84
Howard,Fields,Lithuanian,hfieldsit@ucoz.com,161.87.217.135
Barbara,Pierce,Hindi,bpierceiu@netlog.com,225.230.40.118
Kimberly,Wheeler,Persian,kwheeleriv@moonfruit.com,204.182.127.192
Brenda,Reynolds,Albanian,breynoldsiw@uiuc.edu,205.223.134.132
Rachel,Henry,Kannada,rhenryix@mozilla.org,38.175.20.146
Dennis,Freeman,Bosnian,dfreemaniy@prlog.org,181.92.25.108
Phyllis,Peters,Albanian,ppetersiz@cbslocal.com,64.181.210.201
Shawn,Rodriguez,Danish,srodriguezj0@cargocollective.com,235.207.228.5
Kenneth,Campbell,Lithuanian,kcampbellj1@goo.ne.jp,119.49.215.194
Jack,Nguyen,Estonian,jnguyenj2@pcworld.com,13.217.212.220
Philip,Torres,Afrikaans,ptorresj3@artisteer.com,190.105.42.197
Christopher,Turner,Kashmiri,cturnerj4@geocities.com,171.233.30.194
Nicole,Austin,Danish,naustinj5@e-recht24.de,253.95.235.76
Martha,Long,Malay,mlongj6@craigslist.org,82.199.91.213
Maria,Greene,Fijian,mgreenej7@time.com,134.147.74.92
Susan,Peterson,Romanian,spetersonj8@github.io,9.39.64.183
Catherine,Robertson,Estonian,crobertsonj9@i2i.jp,247.196.238.210
Dorothy,Carr,Zulu,dcarrja@hhs.gov,49.51.134.71
Adam,Rogers,Afrikaans,arogersjb@fastcompany.com,185.80.180.71
Michael,Butler,Dzongkha,mbutlerjc@dailymail.co.uk,21.86.232.120
Charles,Kelly,Afrikaans,ckellyjd@etsy.com,63.231.45.109
Andrew,Hughes,Macedonian,ahughesje@japanpost.jp,57.20.196.74
Norma,Lawrence,Malay,nlawrencejf@yelp.com,176.166.97.50
Paul,Lopez,Filipino,plopezjg@vimeo.com,103.40.155.84
Charles,Phillips,Burmese,cphillipsjh@deliciousdays.com,127.237.16.208
Nicole,Harrison,Norwegian,nharrisonji@123-reg.co.uk,162.214.54.205
Bonnie,Fisher,Georgian,bfisherjj@vinaora.com,233.16.22.251
Robert,Romero,Bosnian,rromerojk@typepad.com,132.168.198.184
Katherine,Harrison,Amharic,kharrisonjl@google.fr,134.177.32.226
Charles,Rose,Tsonga,crosejm@mayoclinic.com,229.116.135.228
Timothy,Rice,Tok Pisin,tricejn@google.com.br,66.69.103.86
Maria,Spencer,Azeri,mspencerjo@disqus.com,194.115.179.210
Jennifer,Martin,Arabic,jmartinjp@foxnews.com,216.111.233.252
Kathryn,Frazier,Gagauz,kfrazierjq@qq.com,30.77.161.105
Irene,Carpenter,Bengali,icarpenterjr@topsy.com,202.39.205.242
Sharon,Gardner,Gujarati,sgardnerjs@mayoclinic.com,79.209.202.109
Brenda,Gutierrez,Zulu,bgutierrezjt@miitbeian.gov.cn,39.226.130.5
Cheryl,Hunter,Kashmiri,chunterju@yahoo.com,54.210.226.30
Raymond,Rice,Catalan,rricejv@wp.com,222.216.166.1
Lawrence,Hunter,Maltese,lhunterjw@istockphoto.com,243.12.173.255
Tina,Thompson,Luxembourgish,tthompsonjx@printfriendly.com,207.70.139.240
Matthew,Pierce,Quechua,mpiercejy@marketwatch.com,161.49.101.39
Marilyn,Montgomery,Indonesian,mmontgomeryjz@studiopress.com,43.139.135.77
Earl,Jones,Gujarati,ejonesk0@narod.ru,143.230.54.202
Thomas,Rogers,Lao,trogersk1@elpais.com,140.143.177.46
Victor,Knight,Norwegian,vknightk2@joomla.org,118.29.194.133
Russell,Harper,Kannada,rharperk3@clickbank.net,31.42.202.84
Kevin,Berry,Kurdish,kberryk4@histats.com,228.144.59.56
Timothy,Rodriguez,Bosnian,trodriguezk5@diigo.com,99.238.34.252
Kevin,Reyes,Romanian,kreyesk6@1688.com,30.153.92.137
John,Peterson,Nepali,jpetersonk7@yale.edu,169.18.41.229
Ralph,Murphy,Swati,rmurphyk8@wix.com,245.11.222.61
Aaron,Howell,Filipino,ahowellk9@ihg.com,111.233.42.155
Rachel,Rice,Indonesian,rriceka@cnbc.com,250.252.5.91
Albert,Hansen,Khmer,ahansenkb@friendfeed.com,148.29.175.139
Kathy,Foster,Zulu,kfosterkc@nps.gov,35.52.57.157
Pamela,Wilson,Polish,pwilsonkd@ezinearticles.com,87.70.145.98
Henry,Tucker,Dutch,htuckerke@economist.com,137.204.145.203
Lisa,Olson,Romanian,lolsonkf@phoca.cz,41.169.8.44
Peter,Brooks,Marathi,pbrookskg@springer.com,35.57.58.190
Ryan,Ryan,Indonesian,rryankh@go.com,37.115.225.206
Dorothy,Rodriguez,New Zealand Sign Language,drodriguezki@trellian.com,161.222.187.1
Anthony,Murphy,Spanish,amurphykj@guardian.co.uk,195.196.168.40
Marilyn,Sanchez,English,msanchezkk@ezinearticles.com,7.99.207.142
Justin,Bishop,Catalan,jbishopkl@ucsd.edu,184.120.165.131
Lillian,Warren,Kannada,lwarrenkm@hud.gov,235.215.6.54
Scott,Weaver,German,sweaverkn@desdev.cn,2.226.164.119
Roy,Scott,Dari,rscottko@clickbank.net,81.118.186.182
Margaret,Cole,Gujarati,mcolekp@nature.com,37.69.135.13
Phillip,Rogers,Swahili,progerskq@ed.gov,36.87.15.175
Rebecca,Fisher,Afrikaans,rfisherkr@jugem.jp,172.160.125.110
Ryan,Black,Tajik,rblackks@wikipedia.org,119.253.80.227
Timothy,Adams,Indonesian,tadamskt@hp.com,68.59.43.123
Frances,Ellis,Māori,fellisku@addthis.com,246.83.153.196
Cynthia,Mason,Norwegian,cmasonkv@sbwire.com,192.3.165.226
Mildred,Gordon,Persian,mgordonkw@furl.net,122.245.174.228
Justin,Black,Quechua,jblackkx@unesco.org,61.246.255.251
Raymond,Russell,Spanish,rrussellky@house.gov,197.66.30.165
Ronald,White,Dari,rwhitekz@dailymotion.com,3.99.190.4
Andrew,Hansen,Spanish,ahansenl0@zdnet.com,155.142.181.172
Charles,Davis,Ndebele,cdavisl1@utexas.edu,226.49.31.82
Rachel,Bishop,Danish,rbishopl2@bloomberg.com,254.41.103.177
Katherine,Weaver,Fijian,kweaverl3@ucla.edu,189.44.164.35
Peter,Alexander,Bosnian,palexanderl4@washington.edu,235.6.222.214
Rebecca,Mitchell,Montenegrin,rmitchelll5@webeden.co.uk,12.93.171.35
Susan,Mendoza,Maltese,smendozal6@youtu.be,79.177.175.245
Julie,Carter,New Zealand Sign Language,jcarterl7@china.com.cn,142.4.176.138
Frank,Hunter,Hungarian,fhunterl8@springer.com,27.98.113.216
Johnny,Johnston,Malayalam,jjohnstonl9@scribd.com,108.96.82.187
Donald,Watson,Romanian,dwatsonla@tumblr.com,77.123.212.238
Donald,Diaz,Nepali,ddiazlb@toplist.cz,191.167.10.39
Stephanie,Kennedy,Hindi,skennedylc@liveinternet.ru,56.226.200.96
Irene,Hunter,Danish,ihunterld@nationalgeographic.com,57.84.181.77
Cynthia,Johnston,Romanian,cjohnstonle@archive.org,158.234.61.85
Rachel,Reynolds,Pashto,rreynoldslf@storify.com,124.122.120.37
Doris,Mitchell,Tamil,dmitchelllg@gizmodo.com,73.68.97.111
Nicole,Matthews,Guaraní,nmatthewslh@shinystat.com,201.81.251.190
William,Webb,Gagauz,wwebbli@washingtonpost.com,71.236.160.141
Aaron,Watson,Swedish,awatsonlj@moonfruit.com,233.120.48.217
Emily,Burke,Haitian Creole,eburkelk@bravesites.com,216.17.32.143
Pamela,Porter,Arabic,pporterll@spotify.com,83.90.185.245
Helen,Howell,Czech,hhowelllm@deviantart.com,192.43.228.184
Evelyn,Myers,Oriya,emyersln@ft.com,40.64.205.47
Donna,Hansen,Hungarian,dhansenlo@stanford.edu,53.135.174.137
Johnny,Armstrong,Kyrgyz,jarmstronglp@irs.gov,219.31.97.27
Alice,Grant,Macedonian,agrantlq@yolasite.com,251.125.240.157
Steven,Alvarez,Quechua,salvarezlr@jiathis.com,65.119.48.140
Carolyn,Morgan,Gujarati,cmorganls@walmart.com,134.232.30.64
Kathy,Castillo,Dhivehi,kcastillolt@symantec.com,160.48.44.115
Charles,Marshall,Albanian,cmarshalllu@soundcloud.com,137.178.176.128
Shawn,Fuller,Burmese,sfullerlv@nhs.uk,33.177.31.111
Frances,Nguyen,Yiddish,fnguyenlw@house.gov,246.123.221.210
Sean,Greene,Tamil,sgreenelx@lycos.com,174.137.92.47
David,Nguyen,Malagasy,dnguyenly@yale.edu,246.173.193.3
Kathryn,Ferguson,Afrikaans,kfergusonlz@huffingtonpost.com,167.68.232.151
Marie,Shaw,Kashmiri,mshawm0@livejournal.com,95.228.150.206
Sandra,Washington,Japanese,swashingtonm1@earthlink.net,206.193.120.211
Jack,Kennedy,Luxembourgish,jkennedym2@eventbrite.com,195.29.41.94
Kimberly,Brown,Georgian,kbrownm3@istockphoto.com,212.5.85.228
Cheryl,Hudson,English,chudsonm4@opera.com,58.86.105.136
Marie,Rivera,Dutch,mriveram5@deliciousdays.com,195.211.143.34
Ruby,Montgomery,German,rmontgomerym6@msu.edu,170.185.40.119
Andrew,Kennedy,Tetum,akennedym7@unesco.org,75.69.58.212
Eugene,Powell,Finnish,epowellm8@hp.com,232.81.44.89
Kimberly,Harris,Hebrew,kharrism9@github.com,168.225.245.83
Christina,Griffin,Ndebele,cgriffinma@edublogs.org,141.125.48.230
Dennis,Taylor,Quechua,dtaylormb@live.com,7.170.119.157
Tammy,Kim,Kyrgyz,tkimmc@cisco.com,228.54.220.183
Fred,Little,Finnish,flittlemd@desdev.cn,135.110.144.246
Betty,Larson,Lao,blarsonme@livejournal.com,51.238.35.118
Robert,Hunter,Estonian,rhuntermf@wordpress.org,99.216.71.184
Antonio,Gutierrez,Romanian,agutierrezmg@wikipedia.org,140.224.4.80
Judy,Ruiz,Afrikaans,jruizmh@si.edu,202.88.160.200
Lawrence,Coleman,Latvian,lcolemanmi@homestead.com,191.16.192.148
Amanda,Adams,Khmer,aadamsmj@gov.uk,68.234.225.212
Irene,Nichols,Tok Pisin,inicholsmk@gov.uk,4.184.101.50
Harold,Harrison,Guaraní,hharrisonml@mit.edu,164.78.41.39
Marilyn,Little,Lao,mlittlemm@google.pl,168.99.48.25
Cheryl,Hanson,Bengali,chansonmn@sun.com,106.91.141.30
Tammy,Jenkins,Chinese,tjenkinsmo@tripadvisor.com,13.81.138.150
Andrea,Larson,English,alarsonmp@pinterest.com,228.128.33.208
Gloria,Morris,Japanese,gmorrismq@omniture.com,193.11.140.174
Samuel,Lewis,Hindi,slewismr@telegraph.co.uk,246.63.154.174
Mark,Larson,Icelandic,mlarsonms@stumbleupon.com,188.115.255.145
Debra,Cox,Belarusian,dcoxmt@bloomberg.com,143.91.14.101
Rose,Bradley,Belarusian,rbradleymu@nature.com,253.97.252.68
Amanda,Miller,Zulu,amillermv@i2i.jp,94.102.179.39
Howard,Allen,Portuguese,hallenmw@biglobe.ne.jp,16.84.159.137
Lillian,Gilbert,Kurdish,lgilbertmx@technorati.com,146.78.165.201
Jessica,Frazier,Kyrgyz,jfraziermy@microsoft.com,157.252.155.22
Teresa,Ruiz,Afrikaans,truizmz@macromedia.com,164.117.21.177
Katherine,Hill,Polish,khilln0@zdnet.com,191.34.244.187
Wayne,Green,Punjabi,wgreenn1@hao123.com,234.17.176.104
Brian,Dixon,Arabic,bdixonn2@addthis.com,31.180.168.8
Jeremy,Watkins,Greek,jwatkinsn3@so-net.ne.jp,147.52.247.88
Joshua,Little,Assamese,jlittlen4@geocities.jp,169.111.2.170
David,Lawson,Lithuanian,dlawsonn5@alibaba.com,191.94.132.248
Shawn,Day,Italian,sdayn6@multiply.com,60.200.194.162
George,Thompson,Azeri,gthompsonn7@marriott.com,135.253.198.223
Paula,Thompson,French,pthompsonn8@businessinsider.com,237.10.159.240
Harold,Gray,Kannada,hgrayn9@marriott.com,1.250.84.71
Mildred,Evans,Guaraní,mevansna@spiegel.de,130.223.243.72
Roy,Stone,Gagauz,rstonenb@answers.com,49.4.23.75
John,Castillo,Zulu,jcastillonc@epa.gov,144.66.219.211
Nicole,Powell,Moldovan,npowellnd@hud.gov,14.35.183.14
Thomas,Harvey,Dhivehi,tharveyne@ifeng.com,224.141.97.203
Margaret,Lawrence,Luxembourgish,mlawrencenf@ibm.com,96.248.188.198
Jesse,Owens,Telugu,jowensng@baidu.com,148.79.56.187
Steven,Williams,Nepali,swilliamsnh@discuz.net,4.130.138.229
Nancy,Hall,Persian,nhallni@ted.com,194.1.78.80
Rebecca,Wright,Kurdish,rwrightnj@mail.ru,241.35.170.58
Gerald,Reid,Finnish,greidnk@hud.gov,10.54.9.135
Steven,Cook,Maltese,scooknl@gmpg.org,27.59.142.154
Douglas,Larson,Northern Sotho,dlarsonnm@g.co,7.228.200.164
Thomas,Medina,Belarusian,tmedinann@bloglines.com,116.88.235.9
Bobby,Torres,Korean,btorresno@nasa.gov,185.69.111.222
Melissa,Warren,Zulu,mwarrennp@ning.com,26.162.21.103
Amy,Hernandez,Zulu,ahernandeznq@tinypic.com,187.191.8.153
Paul,Berry,Pashto,pberrynr@google.ru,105.201.250.7
Maria,Washington,Arabic,mwashingtonns@dot.gov,89.250.238.228
Janet,Simpson,Kyrgyz,jsimpsonnt@unblog.fr,70.85.206.249
Dennis,Sanders,Gujarati,dsandersnu@imdb.com,162.19.41.21
Clarence,Hanson,Fijian,chansonnv@europa.eu,172.66.160.187
Judy,Martin,Lithuanian,jmartinnw@umn.edu,118.148.74.91
Janice,Johnson,Danish,jjohnsonnx@taobao.com,59.211.152.249
Judith,Wagner,Fijian,jwagnerny@dropbox.com,177.34.241.144
Teresa,Woods,Polish,twoodsnz@squarespace.com,202.236.51.212
Fred,Kennedy,Norwegian,fkennedyo0@ftc.gov,118.170.83.176
George,Stanley,Kyrgyz,gstanleyo1@si.edu,227.24.76.30
Jessica,Spencer,Kazakh,jspencero2@pagesperso-orange.fr,197.149.98.237
Mark,Gardner,Montenegrin,mgardnero3@google.es,174.41.214.224
Harry,Bradley,Croatian,hbradleyo4@senate.gov,32.214.157.180
Dennis,Bishop,Greek,dbishopo5@nyu.edu,212.84.142.43
Doris,Diaz,Danish,ddiazo6@jalbum.net,40.108.185.100
Martin,Marshall,Hungarian,mmarshallo7@psu.edu,115.161.142.91
Laura,Williamson,Mongolian,lwilliamsono8@webnode.com,214.157.143.74
Christina,Owens,Bengali,cowenso9@myspace.com,160.219.97.108
Michael,Walker,Malagasy,mwalkeroa@blogspot.com,107.92.164.200
Paula,Burns,Malagasy,pburnsob@domainmarket.com,71.183.130.133
Patricia,Young,Nepali,pyoungoc@blogspot.com,254.241.72.243
Evelyn,Kelley,Korean,ekelleyod@salon.com,209.175.105.132
Larry,Wagner,Maltese,lwagneroe@nps.gov,170.95.89.43
Antonio,Evans,Gujarati,aevansof@whitehouse.gov,62.96.5.124
Pamela,Knight,Tswana,pknightog@slideshare.net,164.249.248.103
Sarah,Stevens,Malagasy,sstevensoh@usa.gov,178.22.106.70
Sara,Reynolds,Ndebele,sreynoldsoi@bloomberg.com,145.41.223.67
Betty,Ward,Belarusian,bwardoj@cbsnews.com,189.16.85.23
Chris,Smith,Māori,csmithok@163.com,23.112.218.179
Howard,Bailey,Bulgarian,hbaileyol@jugem.jp,103.187.184.217
Brian,Morrison,Belarusian,bmorrisonom@histats.com,214.55.154.77
Stephanie,Ferguson,Tswana,sfergusonon@tripadvisor.com,131.214.42.111
Howard,Griffin,Mongolian,hgriffinoo@nytimes.com,8.32.191.220
Jessica,Boyd,Malagasy,jboydop@harvard.edu,43.180.86.66
Nicole,Burton,Ndebele,nburtonoq@merriam-webster.com,69.29.233.7
Gregory,Thomas,Hungarian,gthomasor@hostgator.com,229.128.90.110
Wanda,Chavez,Arabic,wchavezos@ebay.com,174.228.236.20
Lisa,Moreno,Tok Pisin,lmorenoot@blogspot.com,135.98.79.156
Annie,Turner,Fijian,aturnerou@telegraph.co.uk,69.41.69.212
Alice,Peterson,Danish,apetersonov@chron.com,224.80.109.151
Melissa,George,Tajik,mgeorgeow@yolasite.com,136.154.68.211
Virginia,Warren,Bislama,vwarrenox@webnode.com,70.173.63.126
Annie,Hamilton,Tswana,ahamiltonoy@amazonaws.com,33.93.47.140
Joshua,Hansen,Irish Gaelic,jhansenoz@feedburner.com,255.178.222.172
Christopher,Greene,Moldovan,cgreenep0@photobucket.com,216.5.252.184
Rose,Greene,Somali,rgreenep1@people.com.cn,26.183.52.39
Cheryl,Fisher,Korean,cfisherp2@a8.net,246.225.113.163
Matthew,Lynch,Italian,mlynchp3@archive.org,232.216.100.14
Andrew,Graham,Hiri Motu,agrahamp4@chicagotribune.com,53.221.244.52
Doris,Mcdonald,Punjabi,dmcdonaldp5@newsvine.com,187.49.198.69
Lisa,Andrews,Kyrgyz,landrewsp6@nasa.gov,253.233.163.221
Jennifer,Gray,Indonesian,jgrayp7@weibo.com,218.17.53.157
Bruce,Hansen,Māori,bhansenp8@si.edu,45.212.142.218
Ryan,Mason,New Zealand Sign Language,rmasonp9@google.co.uk,127.182.10.41
Tina,Cox,Finnish,tcoxpa@dyndns.org,223.162.53.254
Joan,Chavez,Afrikaans,jchavezpb@tiny.cc,218.42.84.99
Christine,Thomas,Lithuanian,cthomaspc@devhub.com,22.7.231.33
Cynthia,Harper,Nepali,charperpd@ow.ly,219.113.138.49
Alice,Gutierrez,Georgian,agutierrezpe@sfgate.com,142.143.197.85
Chris,Henry,Fijian,chenrypf@51.la,11.103.22.173
Kenneth,Morales,Belarusian,kmoralespg@ebay.co.uk,173.114.58.108
Jason,Arnold,Moldovan,jarnoldph@latimes.com,200.178.145.205
Douglas,Watkins,Bosnian,dwatkinspi@smh.com.au,178.68.26.155
Beverly,Scott,Montenegrin,bscottpj@dell.com,67.62.203.135
Willie,Mccoy,Hebrew,wmccoypk@baidu.com,115.91.30.67
Jennifer,Ferguson,Azeri,jfergusonpl@abc.net.au,145.69.180.255
Kelly,Garza,Irish Gaelic,kgarzapm@blogs.com,231.205.76.64
Harold,West,Yiddish,hwestpn@webnode.com,244.11.97.42
Howard,Hamilton,Kashmiri,hhamiltonpo@cisco.com,178.128.15.233
Linda,Patterson,Kazakh,lpattersonpp@weebly.com,161.48.179.128
Alan,Roberts,Dzongkha,arobertspq@bbb.org,27.4.146.211
Judy,Martin,Romanian,jmartinpr@issuu.com,28.207.57.70
Eugene,Olson,Aymara,eolsonps@nbcnews.com,242.247.181.81
Wayne,Barnes,German,wbarnespt@php.net,222.39.184.205
Christine,Warren,Hiri Motu,cwarrenpu@toplist.cz,11.19.101.116
Mildred,Elliott,Nepali,melliottpv@hexun.com,46.166.48.26
Louis,Cunningham,Japanese,lcunninghampw@wikimedia.org,75.91.149.186
Sarah,Walker,Somali,swalkerpx@jimdo.com,203.111.68.225
Joan,Burke,French,jburkepy@latimes.com,25.194.139.60
Shirley,Day,Fijian,sdaypz@illinois.edu,208.200.167.241
Debra,Hawkins,Kannada,dhawkinsq0@home.pl,9.176.182.29
Dennis,Gonzalez,Hungarian,dgonzalezq1@w3.org,229.110.39.190
Maria,Mendoza,Kannada,mmendozaq2@intel.com,200.66.152.155
Juan,Palmer,Luxembourgish,jpalmerq3@myspace.com,136.79.140.64
Louis,Larson,Maltese,llarsonq4@pinterest.com,163.150.141.36
Frank,Thomas,New Zealand Sign Language,fthomasq5@jalbum.net,195.59.74.104
Nancy,Webb,Tsonga,nwebbq6@ask.com,53.202.216.48
Dennis,Larson,Korean,dlarsonq7@zdnet.com,154.79.249.124
Michael,Turner,Zulu,mturnerq8@huffingtonpost.com,148.7.63.247
Kelly,Simmons,Tsonga,ksimmonsq9@gnu.org,241.215.172.132
Virginia,Tucker,Belarusian,vtuckerqa@rediff.com,4.155.0.10
Angela,Ray,Lao,arayqb@rakuten.co.jp,221.100.157.136
Gerald,Diaz,Dari,gdiazqc@nps.gov,252.29.43.42
Martin,Lawrence,Arabic,mlawrenceqd@miitbeian.gov.cn,162.93.101.199
Louise,Mills,Georgian,lmillsqe@sina.com.cn,123.182.67.197
Mildred,Harvey,Czech,mharveyqf@livejournal.com,26.244.49.231
Scott,Mccoy,Bosnian,smccoyqg@va.gov,112.46.0.226
Gerald,Ellis,German,gellisqh@alexa.com,105.51.45.161
Frank,Hudson,Polish,fhudsonqi@vinaora.com,243.224.152.1
Phyllis,Bell,Moldovan,pbellqj@tinypic.com,196.134.16.250
Keith,Tucker,Marathi,ktuckerqk@jalbum.net,168.48.121.22
Judith,Nichols,Greek,jnicholsql@arizona.edu,80.175.57.94
Michael,Lawson,Hindi,mlawsonqm@bluehost.com,50.228.25.9
Sara,George,Aymara,sgeorgeqn@mit.edu,0.201.225.248
Denise,Wagner,Catalan,dwagnerqo@digg.com,32.217.169.96
Denise,Thompson,Czech,dthompsonqp@un.org,51.241.70.187
Marilyn,Knight,Swedish,mknightqq@home.pl,146.161.13.1
Fred,Evans,Assamese,fevansqr@prlog.org,196.116.131.215
Jonathan,Sanders,Khmer,jsandersqs@sfgate.com,24.137.147.113
Diane,Turner,Zulu,dturnerqt@seattletimes.com,74.12.35.28
Evelyn,Smith,Dari,esmithqu@psu.edu,78.44.35.29
Aaron,Armstrong,Polish,aarmstrongqv@irs.gov,34.146.232.50
Gary,Russell,Tetum,grussellqw@cam.ac.uk,250.150.125.48
Bruce,George,Fijian,bgeorgeqx@homestead.com,211.187.119.38
Jeffrey,Weaver,Zulu,jweaverqy@cyberchimps.com,171.149.27.184
Kathryn,Miller,Pashto,kmillerqz@stumbleupon.com,239.128.196.69
Pamela,Griffin,Pashto,pgriffinr0@imageshack.us,20.81.72.143
Anna,Thomas,Polish,athomasr1@creativecommons.org,92.172.112.165
Johnny,Frazier,Guaraní,jfrazierr2@skype.com,60.33.36.106
Helen,Young,Chinese,hyoungr3@narod.ru,82.114.21.238
Elizabeth,Bradley,Chinese,ebradleyr4@about.me,86.217.232.64
Jason,Rogers,Irish Gaelic,jrogersr5@reuters.com,196.49.109.82
Carlos,Ray,Lithuanian,crayr6@java.com,244.199.72.45
Julia,Welch,Italian,jwelchr7@vimeo.com,157.150.141.169
Eugene,Taylor,Croatian,etaylorr8@rakuten.co.jp,145.110.254.42
Jeremy,Peters,Romanian,jpetersr9@sbwire.com,69.237.143.190
Angela,Lawson,Khmer,alawsonra@studiopress.com,110.125.200.239
Louis,Miller,Romanian,lmillerrb@chron.com,98.253.42.205
Laura,Murphy,Kyrgyz,lmurphyrc@sun.com,102.180.20.163
Jacqueline,Watson,Malay,jwatsonrd@alibaba.com,37.98.107.222
Sharon,Morrison,Czech,smorrisonre@craigslist.org,244.1.152.12
Angela,Kelley,Lithuanian,akelleyrf@weibo.com,78.123.115.227
Terry,Clark,Gujarati,tclarkrg@rakuten.co.jp,69.93.113.225
Kathryn,Robinson,Latvian,krobinsonrh@privacy.gov.au,107.158.131.218
Diane,Stanley,English,dstanleyri@noaa.gov,16.208.3.131
Patrick,Cook,Oriya,pcookrj@shutterfly.com,61.45.136.24
Paula,Webb,Tetum,pwebbrk@pagesperso-orange.fr,210.155.136.199
Kenneth,Hayes,Czech,khayesrl@yahoo.co.jp,102.131.230.166
Debra,Cox,Albanian,dcoxrm@indiatimes.com,63.188.196.247
Kimberly,Campbell,Catalan,kcampbellrn@unicef.org,213.124.128.18
Anna,Flores,Dari,afloresro@wikia.com,253.122.45.248
Jennifer,Long,Punjabi,jlongrp@reverbnation.com,100.250.165.182
Dennis,Hall,Aymara,dhallrq@google.es,127.233.222.1
Ruby,Jenkins,Polish,rjenkinsrr@myspace.com,142.243.17.52
